<svg width="20" height="20" viewBox="0 0 20 20" fill="none" xmlns="http://www.w3.org/2000/svg">
<g clip-path="url(#clip0_1215_98278)">
<path d="M8.6401 14.3672H7.77344V16.9672H8.6401V14.3672Z" fill="#626982"/>
<path d="M12.1069 14.3672H11.2402V16.9672H12.1069V14.3672Z" fill="#626982"/>
<path d="M15.5737 14.3672H14.707V16.9672H15.5737V14.3672Z" fill="#626982"/>
<path d="M16.2667 10.9H13.5713L13.2203 9.4947C13.1969 9.40099 13.1427 9.31782 13.0666 9.25838C12.9904 9.19895 12.8966 9.16667 12.8 9.16667H11.9333V3.1H12.3667C12.7114 3.1 13.0421 2.96304 13.2859 2.71924C13.5297 2.47544 13.6667 2.14478 13.6667 1.8C13.6667 1.45522 13.5297 1.12456 13.2859 0.880761C13.0421 0.636964 12.7114 0.5 12.3667 0.5H9.76667C9.66949 0.501624 9.57584 0.536667 9.50147 0.599233L9.49713 0.594033L-4.68717 11.8577C-5.14043 11.9847 -5.53989 12.2561 -5.82494 12.6307C-6.10999 13.0053 -6.26508 13.4626 -6.26667 13.9333V19.1333H-6.7C-6.81493 19.1333 -6.92515 19.179 -7.00641 19.2603C-7.08768 19.3415 -7.13333 19.4517 -7.13333 19.5667V24.0655L-7.76037 24.3788C-7.8324 24.4148 -7.89298 24.4702 -7.93531 24.5387C-7.97764 24.6072 -8.00004 24.6861 -8 24.7667V26.0667C-8 26.1816 -7.95435 26.2918 -7.87308 26.3731C-7.79181 26.4543 -7.68159 26.5 -7.56667 26.5H-0.633333C-0.518406 26.5 -0.408186 26.4543 -0.32692 26.3731C-0.245654 26.2918 -0.2 26.1816 -0.2 26.0667V24.7667C-0.199558 24.6858 -0.22177 24.6064 -0.26412 24.5374C-0.306471 24.4685 -0.367268 24.4128 -0.439633 24.3767L-1.06667 24.0655V19.5667C-1.06667 19.4517 -1.11232 19.3415 -1.19359 19.2603C-1.27485 19.179 -1.38507 19.1333 -1.5 19.1333H-1.93333V14.5508L9.94 3.1H11.0667V9.16667H10.2C10.1034 9.16667 10.0096 9.19895 9.93341 9.25838C9.85725 9.31782 9.80314 9.40099 9.77967 9.4947L9.42867 10.9H6.73333C6.27362 10.9 5.83275 11.0826 5.50768 11.4077C5.18262 11.7327 5 12.1736 5 12.6333V18.2667C5 18.3816 5.04565 18.4918 5.12692 18.5731C5.20819 18.6543 5.31841 18.7 5.43333 18.7H17.5667C17.6816 18.7 17.7918 18.6543 17.8731 18.5731C17.9543 18.4918 18 18.3816 18 18.2667V12.6333C18 12.1736 17.8174 11.7327 17.4923 11.4077C17.1673 11.0826 16.7264 10.9 16.2667 10.9ZM-3.3551 11.9066L9.33333 1.83077V2.48077L-2.0031 13.4133C-2.08876 13.0711 -2.2567 12.755 -2.49231 12.4924C-2.72793 12.2298 -3.02411 12.0287 -3.3551 11.9066V11.9066ZM-4.1 12.6333C-3.75522 12.6333 -3.42456 12.7703 -3.18076 13.0141C-2.93696 13.2579 -2.8 13.5886 -2.8 13.9333H-5.4C-5.4 13.5886 -5.26304 13.2579 -5.01924 13.0141C-4.77544 12.7703 -4.44478 12.6333 -4.1 12.6333V12.6333ZM-6.26667 20H-1.93333V23.9H-6.26667V20ZM-1.06667 25.6333H-7.13333V25.0345L-6.59773 24.7667H-1.60227L-1.06667 25.0345V25.6333ZM-5.4 19.1333V14.8H-2.8V19.1333H-5.4ZM10.2 1.36667H12.3667C12.4816 1.36667 12.5918 1.41232 12.6731 1.49359C12.7543 1.57485 12.8 1.68507 12.8 1.8C12.8 1.91493 12.7543 2.02515 12.6731 2.10641C12.5918 2.18768 12.4816 2.23333 12.3667 2.23333H10.2V1.36667ZM17.1333 12.6333H13.6667V11.7667H16.2667C16.4965 11.7667 16.717 11.858 16.8795 12.0205C17.042 12.183 17.1333 12.4035 17.1333 12.6333ZM10.2 11.3866L10.5384 10.0333H12.4616L12.8 11.3866V12.6333H10.2V11.3866ZM6.73333 11.7667H9.33333V12.6333H5.86667C5.86667 12.4035 5.95798 12.183 6.12051 12.0205C6.28304 11.858 6.50348 11.7667 6.73333 11.7667ZM17.1333 17.8333H5.86667V13.5H17.1333V17.8333Z" fill="#626982"/>
</g>
<defs>
<clipPath id="clip0_1215_98278">
<rect width="20" height="20" fill="white"/>
</clipPath>
</defs>
</svg>
