<svg width="20" height="20" viewBox="0 0 20 20" fill="none" xmlns="http://www.w3.org/2000/svg">
<path d="M3.74938 17.3826H17.8882C18.0607 17.3826 18.2031 17.2253 18.2031 17.0527V5.8722C18.2037 5.83161 18.1963 5.79131 18.1813 5.75361C18.1662 5.7159 18.1439 5.68154 18.1155 5.6525C18.0872 5.62346 18.0534 5.60031 18.016 5.58439C17.9787 5.56846 17.9386 5.56007 17.898 5.5597L15.625 5.54524V2.94693C15.6235 2.88494 15.604 2.82473 15.5689 2.77362C15.5339 2.7225 15.4847 2.68268 15.4274 2.65901C15.3701 2.63533 15.3071 2.62882 15.2462 2.64026C15.1853 2.6517 15.129 2.6806 15.0841 2.72345L12.2125 5.52364L5.625 5.48181V4.39173C5.625 4.21915 5.4952 4.06231 5.32262 4.06231H3.74938C2.77598 4.06231 1.96691 4.8045 1.82238 5.742H1.79688V15.6639H1.81715C1.94453 16.6404 2.76219 17.3826 3.74938 17.3826ZM15 4.88263H14.2939C14.2111 4.88263 14.1316 4.91555 14.073 4.97416C14.0144 5.03276 13.9814 5.11225 13.9814 5.19513C13.9814 5.27801 14.0144 5.35749 14.073 5.4161C14.1316 5.4747 14.2111 5.50763 14.2939 5.50763H15V5.97638H14.7617C14.6788 5.97638 14.5994 6.0093 14.5407 6.0679C14.4821 6.12651 14.4492 6.20599 14.4492 6.28887C14.4492 6.37175 14.4821 6.45124 14.5407 6.50985C14.5994 6.56845 14.6788 6.60137 14.7617 6.60137H15V7.18731H14.2939C14.2111 7.18731 14.1316 7.22024 14.073 7.27884C14.0144 7.33745 13.9814 7.41693 13.9814 7.49981C13.9814 7.58269 14.0144 7.66218 14.073 7.72078C14.1316 7.77939 14.2111 7.81231 14.2939 7.81231H15V8.43731H14.7617C14.6788 8.43731 14.5994 8.47023 14.5407 8.52884C14.4821 8.58744 14.4492 8.66693 14.4492 8.74981C14.4492 8.83269 14.4821 8.91218 14.5407 8.97078C14.5994 9.02939 14.6788 9.06231 14.7617 9.06231H15V9.64825H14.2939C14.2111 9.64825 14.1316 9.68117 14.073 9.73977C14.0144 9.79838 13.9814 9.87787 13.9814 9.96075C13.9814 10.0436 14.0144 10.1231 14.073 10.1817C14.1316 10.2403 14.2111 10.2732 14.2939 10.2732H15V10.7811H14.7617C14.6788 10.7811 14.5994 10.814 14.5407 10.8726C14.4821 10.9312 14.4492 11.0107 14.4492 11.0936C14.4492 11.1764 14.4821 11.2559 14.5407 11.3145C14.5994 11.3731 14.6788 11.4061 14.7617 11.4061H15V11.4842H7.03004L15 3.68935V4.88263ZM11.5755 6.14462L6.04231 11.5553C5.99792 11.6006 5.96769 11.6579 5.95531 11.7201C5.94294 11.7823 5.94895 11.8468 5.97262 11.9057C5.99587 11.9643 6.03578 12.0148 6.08744 12.051C6.13909 12.0871 6.20021 12.1074 6.26324 12.1092H15.2993C15.3853 12.1056 15.4668 12.0696 15.5273 12.0082C15.5878 11.9469 15.6227 11.8649 15.625 11.7788V6.17024L17.5781 6.18274V16.7576H3.74938C3.01875 16.7576 2.42188 16.1458 2.42188 15.4152V15.2155C2.42265 15.0422 2.45766 14.8708 2.52487 14.7111C2.59208 14.5514 2.69018 14.4066 2.81353 14.2849C2.93688 14.1632 3.08306 14.0671 3.24366 14.0021C3.40426 13.9371 3.57612 13.9045 3.74938 13.9061H5.32262C5.4952 13.9061 5.625 13.7505 5.625 13.5779V6.10684L11.5755 6.14462ZM3.74938 4.68731H5V13.2811H3.74938C3.25892 13.2758 2.78464 13.4564 2.42188 13.7865V6.02927C2.42188 5.29864 3.01875 4.68731 3.74938 4.68731Z" fill="#626982"/>
<path d="M10.4516 10.1109C10.4748 10.169 10.5146 10.219 10.5659 10.2548C10.6172 10.2905 10.6779 10.3105 10.7404 10.3122H13.3238C13.4964 10.3122 13.6329 10.1559 13.6329 9.98329V7.40732C13.6333 7.34568 13.6153 7.28531 13.5813 7.23391C13.5473 7.18251 13.4987 7.14239 13.4418 7.11866C13.3849 7.09493 13.3223 7.08867 13.2618 7.10067C13.2013 7.11266 13.1458 7.14238 13.1023 7.18603L10.5193 9.7661C10.4755 9.81062 10.4457 9.86703 10.4337 9.92832C10.4217 9.98961 10.4279 10.0531 10.4516 10.1109V10.1109ZM13.0079 8.16025V9.68719H11.4964L13.0079 8.16025Z" fill="#626982"/>
</svg>
