<svg width="18" height="18" viewBox="0 0 18 18" fill="none" xmlns="http://www.w3.org/2000/svg">
<path fill-rule="evenodd" clip-rule="evenodd" d="M1.00801 4.87286C1.00272 4.9145 1 4.95693 1 5V14C1 14.0418 1.00256 14.083 1.00754 14.1234L4.16512 10.1765C4.33763 9.96084 4.65227 9.92588 4.8679 10.0984C5.08353 10.2709 5.11849 10.5855 4.94599 10.8012L1.64025 14.9333C1.75189 14.9764 1.87319 15 2 15H16C16.1268 15 16.2481 14.9764 16.3597 14.9333L13.054 10.8012C12.8815 10.5855 12.9165 10.2709 13.1321 10.0984C13.3477 9.92588 13.6624 9.96084 13.8349 10.1765L16.9925 14.1234C16.9974 14.083 17 14.0418 17 14V5C17 4.95693 16.9973 4.9145 16.992 4.87286L9.83205 9.64616C9.3282 9.98206 8.6718 9.98206 8.16795 9.64616L1.00801 4.87286ZM16.384 4.07637C16.2657 4.02717 16.136 4 16 4H2C1.86396 4 1.73426 4.02717 1.61604 4.07637L8.72265 8.81411C8.8906 8.92608 9.1094 8.92608 9.27735 8.81411L16.384 4.07637Z" fill="#FAFAFC"/>
</svg>
