<svg xmlns="http://www.w3.org/2000/svg" width="150" height="74" viewBox="0 0 150 74">
  <g id="logo" transform="translate(-904.86 -755.55)">
    <path id="Path_3571" data-name="Path 3571" d="M1315.432,927.585h-2.842V912.81h2.809a8.353,8.353,0,0,1,5.725,1.827,4.548,4.548,0,0,1,1.423,3.319,4.867,4.867,0,0,1-2.48,3.9l4.766,5.726h-3.709l-3.866-4.557a14.919,14.919,0,0,1-1.854.255Zm0-7.112a7.975,7.975,0,0,0,2.995-.95,1.933,1.933,0,0,0,1.275-1.641,1.525,1.525,0,0,0-.547-1.168,5.651,5.651,0,0,0-3.709-1.094Z" transform="translate(-351.38 -152.987)" fill="#fff"/>
    <rect id="Rectangle_1923" data-name="Rectangle 1923" width="150" height="74" transform="translate(904.86 755.55)" fill="#fff" opacity="0"/>
    <path id="Path_3572" data-name="Path 3572" d="M1347.75,915.587v2.842h6.787v2.847h-6.787v3.463h7.626v2.847H1344.94V912.75h10.436v2.809Z" transform="translate(-368.732 -152.954)" fill="#fff"/>
    <path id="Path_3573" data-name="Path 3573" d="M1387.712,927.677h-3.023l-1.46-3.208h-6.384c-.436.983-1.057,2.262-1.46,3.208h-3.064l6.351-14.627h2.735l3.792,8.808.329.7Zm-5.651-6.055-2.007-4.705c-.659,1.534-1.28,3.064-1.97,4.705Z" transform="translate(-383.419 -153.115)" fill="#fff"/>
    <path id="Path_3574" data-name="Path 3574" d="M1419.47,924.749V927.6h-9.23V912.76h2.846v11.966Z" transform="translate(-403.759 -152.96)" fill="#fff"/>
    <path id="Path_3575" data-name="Path 3575" d="M1438.57,927.675V912.84h2.847v14.835Z" transform="translate(-418.955 -153.003)" fill="#fff"/>
    <path id="Path_3576" data-name="Path 3576" d="M1451.864,925.447v.037l-1.094-.927,1.933-2.151,1.094.983a5.044,5.044,0,0,0,3.468,1.354,3.914,3.914,0,0,0,1.53-.329,1.765,1.765,0,0,0,1.024-1.025v.037a2.315,2.315,0,0,0,.069-.464,1.415,1.415,0,0,0-.106-.366,4.6,4.6,0,0,0-2.318-1.349,2.03,2.03,0,0,1-.547-.181l-.4-.148-.621-.181v.037a8.338,8.338,0,0,1-2.369-.927l.037.037a3.959,3.959,0,0,1-1.933-3.393,3.6,3.6,0,0,1,.876-2.369,5.843,5.843,0,0,1,4.172-1.827,7.951,7.951,0,0,1,2.953.464,8.136,8.136,0,0,1,1.9,1.168,11.093,11.093,0,0,1,1.062.927l-1.854,2.156-.927-.77a4.112,4.112,0,0,0-2.953-1.094,3.166,3.166,0,0,0-2.188.765.848.848,0,0,0-.255.552c0,.927.927,1.2,2.587,1.678.329.07.658.218,1.024.324l.292.111v-.037a6.4,6.4,0,0,1,4.01,2.921,3.241,3.241,0,0,1,.366,1.567,4.294,4.294,0,0,1-.181,1.238v-.07a.171.171,0,0,0-.037.107,4.636,4.636,0,0,1-2.554,2.74,6.594,6.594,0,0,1-2.7.58A7.882,7.882,0,0,1,1451.864,925.447Z" transform="translate(-425.499 -152.708)" fill="#fff"/>
    <path id="Path_3577" data-name="Path 3577" d="M1492.15,915.859h-3.973v11.929h-2.865V915.859h-4.052V913.05h10.872Z" transform="translate(-441.853 -153.115)" fill="#fff"/>
    <path id="Path_3578" data-name="Path 3578" d="M1315.1,970.954V973.8h6.8v2.847h-6.787v3.482h7.626v2.847H1312.3V968.14h10.436v2.81Z" transform="translate(-351.224 -182.665)" fill="#fff"/>
    <path id="Path_3579" data-name="Path 3579" d="M1343.108,980.708v.037l-1.108-.964,1.933-2.151,1.094.983a5.048,5.048,0,0,0,3.468,1.349,3.9,3.9,0,0,0,1.53-.329,1.761,1.761,0,0,0,1.025-1.02v.037a2.092,2.092,0,0,0,.074-.464c0-.148-.074-.223-.111-.366a4.6,4.6,0,0,0-2.318-1.349,2.038,2.038,0,0,1-.547-.181l-.4-.148-.621-.181V976a8.424,8.424,0,0,1-2.374-.951l.037.037a3.959,3.959,0,0,1-1.933-3.394,3.59,3.59,0,0,1,.876-2.369,5.834,5.834,0,0,1,4.172-1.827,8.03,8.03,0,0,1,2.953.464,8.436,8.436,0,0,1,1.9,1.168,11.664,11.664,0,0,1,1.057.927l-1.854,2.151-.927-.765a4.112,4.112,0,0,0-2.958-1.094,3.167,3.167,0,0,0-2.188.765.866.866,0,0,0-.255.547c0,.927.927,1.205,2.592,1.678.329.074.654.218,1.02.329l.292.111v-.023a6.4,6.4,0,0,1,4.015,2.916,3.321,3.321,0,0,1,.362,1.572,4.173,4.173,0,0,1-.181,1.238v-.074a.185.185,0,0,0-.037.111,4.594,4.594,0,0,1-2.555,2.735,6.618,6.618,0,0,1-2.7.584A7.881,7.881,0,0,1,1343.108,980.708Z" transform="translate(-367.155 -182.317)" fill="#fff"/>
    <path id="Path_3580" data-name="Path 3580" d="M1383.416,971.2h-3.978v11.929h-2.847V971.2h-4.052V968.39h10.876Z" transform="translate(-383.537 -182.799)" fill="#fff"/>
    <path id="Path_3581" data-name="Path 3581" d="M1411.016,983.017h-3.027l-1.46-3.208h-6.384c-.464.983-1.057,2.258-1.46,3.208h-3.064l6.347-14.627h2.74l3.792,8.808.329.7Zm-5.656-6.055-2.007-4.706c-.654,1.53-1.275,3.064-1.97,4.706Z" transform="translate(-395.916 -182.799)" fill="#fff"/>
    <path id="Path_3582" data-name="Path 3582" d="M1439.7,971.2h-3.978v11.929h-2.847V971.2h-4.047V968.39H1439.7Z" transform="translate(-413.73 -182.799)" fill="#fff"/>
    <path id="Path_3583" data-name="Path 3583" d="M1460.75,970.954V973.8h6.787v2.847h-6.787v3.482h7.626v2.847H1457.94V968.14h10.436v2.81Z" transform="translate(-429.345 -182.665)" fill="#fff"/>
    <path id="Path_3584" data-name="Path 3584" d="M1325.186,1034.351h-3.027l-1.46-3.213h-6.384c-.436.988-1.057,2.263-1.46,3.213h-3.064l6.351-14.631h2.735l3.792,8.808.329.691Zm-5.656-6.059-2-4.706c-.658,1.535-1.28,3.065-1.97,4.706Z" transform="translate(-349.878 -210.333)" fill="#fff"/>
    <path id="Path_3585" data-name="Path 3585" d="M1346.608,1027.054a7.19,7.19,0,0,1,7.079-7.334c2.953,0,5.688,1.97,5.911,4.96l-2.884.074c-.074-1.312-1.46-2.225-3.027-2.225a4.374,4.374,0,0,0-4.233,4.525,4.257,4.257,0,0,0,4.047,4.45,3.616,3.616,0,0,0,3.245-2.374h-4.27v-2.842h7.418v.876c0,4.173-2.629,7.186-6.426,7.186A7.1,7.1,0,0,1,1346.608,1027.054Z" transform="translate(-369.626 -210.333)" fill="#fff"/>
    <path id="Path_3586" data-name="Path 3586" d="M1384.669,1022.3v2.842h6.787v2.847h-6.787v3.468h7.626v2.842H1381.86V1019.49H1392.3v2.809Z" transform="translate(-388.536 -210.209)" fill="#fff"/>
    <path id="Path_3587" data-name="Path 3587" d="M1412.79,1019.57h2.782l6.894,9.847v-9.847h2.847v14.7h-2.847l-6.819-9.634v9.671H1412.8Z" transform="translate(-405.127 -210.252)" fill="#fff"/>
    <path id="Path_3588" data-name="Path 3588" d="M1448,1032.2a7.45,7.45,0,0,1,0-10.32,6.866,6.866,0,0,1,5-2.156,6.744,6.744,0,0,1,2.879.621,7.846,7.846,0,0,1,2.318,1.715l.927,1.02-2.082,1.933-.927-1.057h.037a4.262,4.262,0,0,0-3.1-1.423,4.5,4.5,0,0,0,0,8.975,4.126,4.126,0,0,0,3.1-1.423h-.037l.927-1.057,2.082,1.97-.927,1.02a8.552,8.552,0,0,1-2.318,1.715,7.351,7.351,0,0,1-2.879.621A6.867,6.867,0,0,1,1448,1032.2Z" transform="translate(-422.898 -210.332)" fill="#fff"/>
    <path id="Path_3589" data-name="Path 3589" d="M1481.356,1027.888l-6.166-8.248h3.542l4.2,5.619c1.391-1.822,2.916-3.792,4.265-5.619h3.542l-6.166,8.248c-.037.037-.148.144-.148.181s-.037.148-.037.181v6.1h-2.791v-6.1l-.07-.181Z" transform="translate(-438.598 -210.289)" fill="#fff"/>
    <path id="Path_3590" data-name="Path 3590" d="M1208.78,959.508h-9.11V912.22h8.994c9.81,0,15.415,3.273,18.336,5.841a14.577,14.577,0,0,1,4.557,10.63c-.116,4.789-3.037,9.342-7.942,12.494l15.3,18.34h-11.8l-12.378-14.6a45.232,45.232,0,0,1-5.957.821Zm0-22.777a25.627,25.627,0,0,0,9.578-3.037c2.921-1.516,4.089-3.5,4.089-5.257a4.887,4.887,0,0,0-1.752-3.737c-2.221-2.221-7.01-3.5-11.915-3.5Z" transform="translate(-290.81 -152.67)" fill="#fff"/>
    <rect id="Rectangle_1890" data-name="Rectangle 1890" width="39.244" height="8.387" transform="translate(908.86 815.706)" fill="#fff"/>
    <path id="Path_3591" data-name="Path 3591" d="M1397.2,996.83" transform="translate(-396.764 -198.054)" fill="#fff"/>
  </g>
</svg>
