<svg width="60" height="60" viewBox="0 0 60 60" fill="none" xmlns="http://www.w3.org/2000/svg">
<path d="M57.1875 1.875C51.835 1.875 46.9382 2.98884 42.4805 4.86328C41.1064 5.48373 39.8647 6.1947 38.7305 6.85547C33.1542 10.0746 28.4271 14.3847 24.5508 19.1602C23.7213 18.8066 22.8522 18.5654 21.9727 18.457C18.7684 18.062 15.3121 19.2348 12.0703 21.5039C7.74797 24.5292 3.7046 29.5206 0.9961 35.8594C0.617608 36.632 1.81786 37.5442 2.46094 36.9727C6.38417 33.9295 9.44123 32.3017 11.6016 31.9336C13.5971 31.5938 14.8134 32.1581 15.8203 33.6914C15.7284 33.9073 15.6161 34.1205 15.5274 34.3359C15.3653 34.6788 15.4386 35.1189 15.7031 35.3906L24.6094 44.2383C24.8586 44.4992 25.2661 44.5951 25.6055 44.4727C25.8194 44.3845 26.0354 44.271 26.25 44.1797C27.8248 45.1947 28.3522 46.3763 28.0078 48.3984C27.6399 50.5588 26.0704 53.6158 23.0273 57.5391C22.6165 58.1778 23.3538 59.1609 24.082 58.9453C30.4208 56.2367 35.4708 52.2519 38.4961 47.9297C41.3752 43.8163 42.4397 39.3305 40.8399 35.5078C46.3015 31.1354 51.1751 25.6434 54.4922 19.1016C54.9948 18.2311 54.9695 18.0036 55.2539 17.4023C57.0731 12.9931 58.125 8.07526 58.125 2.8125C58.125 2.32164 57.6784 1.87505 57.1875 1.875ZM56.1328 3.86719C56.0105 8.00024 55.2202 11.8909 53.9063 15.4688L44.5313 6.09375C48.1146 4.76034 51.9887 3.99263 56.1328 3.86719ZM42.6563 6.85547L53.2031 17.4023L52.3828 18.9844L41.0156 7.73438C41.9652 7.18612 42.0917 7.16302 42.6563 6.85547ZM39.3164 8.73047L51.4453 20.6836C46.1383 29.6301 37.758 36.3688 29.3555 40.6641C28.2668 41.2087 27.1686 41.7465 26.0156 42.2461C25.8265 42.3285 25.6183 42.4007 25.4297 42.4805L17.5195 34.5117C21.5919 24.9051 28.9848 14.8346 39.3164 8.73047ZM38.3789 17.8125C37.311 17.8125 36.255 18.2373 35.4492 19.043C33.8377 20.6545 33.8378 23.2908 35.4492 24.9023C37.0606 26.5137 39.6971 26.5139 41.3086 24.9023C42.9201 23.291 42.92 20.6543 41.3086 19.043C40.5029 18.2373 39.4469 17.8125 38.3789 17.8125ZM38.3789 19.6875C38.9631 19.6875 39.5721 19.8846 40.0195 20.332C40.9145 21.227 40.9144 22.6597 40.0195 23.5547C39.1246 24.4496 37.6332 24.4496 36.7383 23.5547C35.8434 22.6597 35.8434 21.227 36.7383 20.332C37.1857 19.8846 37.7947 19.6875 38.3789 19.6875ZM20.0391 20.332C21.095 20.3457 22.1126 20.6069 23.0859 20.918C22.3574 21.9179 21.6672 23.0055 20.9766 24.082C20.5232 24.7732 20.0488 25.492 19.6289 26.1914C18.9981 27.265 18.397 28.3872 17.8125 29.5312C17.4054 30.3148 17.0645 31.0917 16.6992 31.875C16.6694 31.9398 16.6117 31.9858 16.582 32.0508C15.222 30.589 13.4907 29.7456 11.3086 30.1172C9.42811 30.4374 7.19137 31.6418 4.7461 33.2227C7.16016 28.9135 10.0024 25.213 13.125 23.0273C15.1078 21.6397 17.098 20.7317 18.9844 20.3906C19.3515 20.3242 19.6871 20.3275 20.0391 20.332ZM13.9453 36.4453L13.3008 37.5586L11.6016 40.7227L11.3086 41.3086L11.7774 41.8359L18.2813 48.2812L18.8086 48.75L19.3945 48.3984L22.4414 46.6406L23.4961 45.9961L22.6172 45.1758L14.8242 37.3242L13.9453 36.4453ZM39.082 36.9141C40.0259 39.8777 39.4388 43.3517 36.9727 46.875C34.7852 50.0003 31.0916 52.8387 26.7773 55.2539C28.3637 52.8022 29.5619 50.5756 29.8828 48.6914C30.2519 46.5245 29.3892 44.776 27.9492 43.418C28.9615 42.9508 29.9808 42.4897 30.9961 41.9531C31.9762 41.4428 32.8824 40.9152 33.8086 40.3711C35.5859 39.313 37.3687 38.184 39.082 36.9141ZM14.3555 39.5508L20.4492 45.5859L19.1016 46.4062L13.5938 40.957L14.3555 39.5508ZM10.8399 44.707L6.38672 49.1602L7.32422 50.0391L11.7188 45.5859L10.8399 44.707ZM12.6563 46.4648L5.50782 53.6133L6.38672 54.4922L13.5352 47.3438L12.6563 46.4648ZM14.4141 48.2812L9.08204 53.6133L9.96094 54.4922L15.293 49.1602L14.4141 48.2812ZM5.50782 50.0391L4.62891 50.918L5.50782 51.7969L6.38672 50.918L5.50782 50.0391ZM4.62891 54.4922L3.75001 55.3711L4.62891 56.25L5.50782 55.3711L4.62891 54.4922ZM8.20313 54.4922L7.32422 55.3711L8.20313 56.25L9.08204 55.3711L8.20313 54.4922Z" fill="#081F6E"/>
</svg>
